Modifying & Combining Distributions • herosurv
…
Set Covariates

Models fitted using survfit or flexsurvreg with predictors can be used to generate a survival distribution representing a subject or set of subjects using set_covariates.

library(flexsurv)
#> Loading required package: survival
library(tibble)

# Fit a model using bc dataset using good as predictor
print(as_tibble(bc))
#> # A tibble: 686 × 4
#>    censrec rectime group recyrs
#>      <int>   <int> <fct>  <dbl>
#>  1       0    1342 Good    3.68
#>  2       0    1578 Good    4.32
#>  3       0    1760 Good    4.82
#>  4       0    1152 Good    3.16
#>  5       0     967 Good    2.65
#>  6       0     629 Good    1.72
#>  7       0     461 Good    1.26
#>  8       1     991 Good    2.72
#>  9       0     758 Good    2.08
#> 10       0    1617 Good    4.43
#> # … with 676 more rows
…
